<svg version="1.1" xmlns="http://www.w3.org/2000/svg" viewBox="0 0 340.33905587049196 326.0000305175781" width="340.33905587049196" height="326.0000305175781">
  <!-- svg-source:excalidraw -->
  
  <defs>
    <style>
      @font-face {
        font-family: "Virgil";
        src: url("https://excalidraw.com/Virgil.woff2");
      }
      @font-face {
        font-family: "Cascadia";
        src: url("https://excalidraw.com/Cascadia.woff2");
      }
    </style>
  </defs>
  <g stroke-linecap="round" transform="translate(179.00568184705446 36) rotate(0 75.66668701171875 91.66665649414062)"><path d="M-1.28 1.46 C35.13 1.84, 65.76 -0.07, 150.72 -1.95 M-0.99 0.12 C44.14 0.2, 86.84 0.47, 152.17 -0.89 M151.74 -0.66 C150.06 47.96, 148.48 97.68, 150.88 183 M151.05 -0.02 C150.64 60.15, 151.11 117.84, 151.21 182.89 M150.47 183 C99.72 183.56, 47.89 182.28, 0.18 184.31 M151.42 182.53 C120.8 183.68, 88.87 183.72, 0.88 182.57 M-0.03 181.68 C1.93 119.28, 3.31 53.5, -1.05 -1.87 M-0.6 182.62 C-0.6 114.45, -1.57 44.99, 0.63 0.75" stroke="#000000" stroke-width="1" fill="none"></path></g><g stroke-linecap="round" transform="translate(195.6723688587732 73.33334350585938) rotate(0 63 30)"><path d="M1.33 -0.56 C35.66 0.83, 73.37 1.78, 125.04 -0.25 M-0.45 -0.43 C32 -0.03, 64.79 0.27, 125.82 0.09 M126.42 0.18 C123.85 22.59, 125.5 42.38, 126.14 61.76 M125.56 -0.02 C125.52 13.59, 127.15 27.73, 126.74 59.48 M125.68 58.8 C98.52 61.4, 74.7 59.46, 0.47 61.26 M126.27 60.94 C78.35 59.09, 32.26 59.36, -0.16 59.11 M-1.21 58.58 C-0.55 40.1, 0.72 19.27, 0.31 1.8 M0.63 59.26 C0.98 43.48, -0.59 27.06, -0.41 0.87" stroke="#000000" stroke-width="1" fill="none"></path></g><g stroke-linecap="round" transform="translate(196.67235359998415 146.66665649414062) rotate(0 61.5 30)"><path d="M-1.2 0.47 C29.38 1.01, 54.7 -0.61, 123.53 1.88 M-0.56 -0.16 C31.22 -0.72, 63.39 -1.2, 122.4 -0.71 M121.22 0.31 C124.67 14.35, 121.79 28.57, 124.26 58.53 M123.04 -0.41 C123.86 22.88, 122.88 43.62, 122.68 59.37 M123.43 60.64 C97.37 59.2, 71.17 61.91, -0.05 59.02 M123.09 59.46 C97.38 60.43, 73.09 59.62, 0.84 60.84 M1.75 59.88 C1.08 43.62, -0.42 24.8, -0.8 0.61 M-0.61 59.48 C0.57 38.75, 0.83 19.83, 0.73 0.13" stroke="#000000" stroke-width="1" fill="none"></path></g><g transform="translate(192.33902535291384 38.33332824707031) rotate(0 25 12.5)"><text x="0" y="18" font-family="Virgil, Segoe UI Emoji" font-size="20px" fill="#000000" text-anchor="start" style="white-space: pre;" direction="ltr">Job 1</text></g><g transform="translate(200.6723688587732 78.33334350585938) rotate(0 58 25)"><text x="0" y="17" font-family="Virgil, Segoe UI Emoji" font-size="20px" fill="#000000" text-anchor="start" style="white-space: pre;" direction="ltr">Step 1</text><text x="0" y="42" font-family="Virgil, Segoe UI Emoji" font-size="20px" fill="#000000" text-anchor="start" style="white-space: pre;" direction="ltr"> function a</text></g><g stroke-linecap="round" transform="translate(179.6723383411951 232) rotate(0 75.33334350585938 42.00001525878906)"><path d="M1.82 0.48 C41.68 0.52, 84.8 -1.61, 151.86 1.64 M-0.76 -0.24 C39.28 0.58, 78.9 2.17, 150.3 0.99 M148.68 1.28 C153 22.88, 151.4 44.31, 148.81 85.69 M149.76 -0.02 C150.42 25.08, 150.55 49.36, 151.49 83.82 M149.63 85.05 C105.84 85.74, 65.54 83, -0.71 84.18 M150.47 84.67 C99.69 83.41, 48.59 83.8, -0.46 83.52 M1.12 84.54 C0.31 63.91, 0.37 46.61, 0.2 -0.37 M0.34 83.55 C0.86 57.04, 0.68 30.2, -0.99 0.12" stroke="#000000" stroke-width="1" fill="none"></path></g><g transform="translate(193.00565132947634 233.6666259765625) rotate(0 29.5 12.5)"><text x="0" y="18" font-family="Virgil, Segoe UI Emoji" font-size="20px" fill="#000000" text-anchor="start" style="white-space: pre;" direction="ltr">Job 2</text></g><g stroke-linecap="round" transform="translate(197.6723688587732 268) rotate(0 62 17.5)"><path d="M1.35 1.64 C37.31 -0.48, 76.74 0.94, 122.97 1.05 M-0.93 -0.35 C26.85 -0.32, 54.48 -0.55, 123.8 0.67 M123.1 -0.92 C122.75 9.85, 123.01 22.76, 125.12 35.54 M124.02 0.1 C123.57 10.69, 123.3 20.91, 124.34 34.55 M122.56 33.03 C81.13 34.68, 39.5 35.18, 1.35 36.95 M123.34 34.81 C84.39 37.08, 43.96 36.5, 0.76 34.3 M1.91 35.36 C0.24 22.26, -1.05 12.94, 1.71 0.18 M-0.06 35.1 C-0.2 23.11, 0.18 11.52, -0.14 -0.07" stroke="#000000" stroke-width="1" fill="none"></path></g><g transform="translate(202.6723688587732 273) rotate(0 57 12.5)"><text x="57" y="17" font-family="Virgil, Segoe UI Emoji" font-size="20px" fill="#000000" text-anchor="middle" style="white-space: pre;" direction="ltr">generator</text></g><g transform="translate(201.67235359998415 151.66665649414062) rotate(0 56.5 25)"><text x="0" y="17" font-family="Virgil, Segoe UI Emoji" font-size="20px" fill="#000000" text-anchor="start" style="white-space: pre;" direction="ltr">Step 2</text><text x="0" y="42" font-family="Virgil, Segoe UI Emoji" font-size="20px" fill="#000000" text-anchor="start" style="white-space: pre;" direction="ltr"> function b</text></g><g stroke-linecap="round"><g transform="translate(9.805715416390399 50.33332824707031) rotate(0 75.10264570889996 0.19691713806980715)"><path d="M1.08 -0.8 C25.55 -0.91, 123.13 -1.12, 147.72 -0.9 M0.19 1.39 C24.96 1.43, 125.39 0.65, 150.01 0.17" stroke="#000000" stroke-width="1" fill="none"></path></g><g transform="translate(9.805715416390399 50.33332824707031) rotate(0 75.10264570889996 0.19691713806980715)"><path d="M120.61 9.43 C131.09 6.68, 144.11 2.45, 151.01 1.05 M122.59 11.52 C130.61 8.46, 140.77 3.63, 150.5 -0.35" stroke="#000000" stroke-width="1" fill="none"></path></g><g transform="translate(9.805715416390399 50.33332824707031) rotate(0 75.10264570889996 0.19691713806980715)"><path d="M120.36 -11.09 C130.89 -6.07, 144.01 -2.55, 151.01 1.05 M122.33 -9 C130.53 -5.48, 140.78 -3.74, 150.5 -0.35" stroke="#000000" stroke-width="1" fill="none"></path></g></g><g transform="translate(49.67236885877321 10) rotate(0 32.5 12.5)"><text x="0" y="18" font-family="Virgil, Segoe UI Emoji" font-size="20px" fill="#000000" text-anchor="start" style="white-space: pre;" direction="ltr">trigger</text></g></svg>